-------------------------------------------------------------------------------
Test set: tech.mastertech.itau.produto.service.CategoriaServiceTest
-------------------------------------------------------------------------------
Tests run: 2, Failures: 0, Errors: 0, Skipped: 0, Time elapsed: 0.078 s - in tech.mastertech.itau.produto.service.CategoriaServiceTest
