tech/mastertech/itau/produto/service/FornecedorServiceTest.class
tech/mastertech/itau/produto/services/ProdutoServiceTest.class
tech/mastertech/itau/produto/services/FornecedorServiceTest.class
tech/mastertech/itau/produto/ProdutoApplicationIT.class
tech/mastertech/itau/produto/service/CategoriaServiceTest.class
tech/mastertech/itau/produto/services/PedidoServiceTest.class
tech/mastertech/itau/produto/services/CategoriaServiceTest.class
tech/mastertech/itau/produto/controllers/CategoriaControllerTest.class
tech/mastertech/itau/produto/controllers/ProdutoControllerTest.class
